66.249.65.190 - [09/Apr/2014:10:38:34 +0800] /index.php: VXo5MzJ3QUNpSUVJcXJBaElQYmpwUT09 = : Tried to access variable that is not allowed.
218.62.90.154 - [09/Apr/2014:10:51:29 +0800] /index.php: aaa = : Tried to access variable that is not allowed.
66.249.65.158 - [09/Apr/2014:10:53:43 +0800] /index.php: VXo5MzJ3QUNpSUVJcXJBaElQYmpwUT09 = : Tried to access variable that is not allowed.
218.62.90.154 - [09/Apr/2014:10:54:37 +0800] /index.php: /index.php = : Tried to access blocked page.
218.62.90.154 - [09/Apr/2014:10:54:42 +0800] /index.php: /index.php = : Tried to access blocked page.
218.62.90.154 - [09/Apr/2014:10:55:36 +0800] /index.php: txtSymbol = : Tried to access variable that is not allowed.
218.62.90.154 - [09/Apr/2014:10:55:45 +0800] /index.php: txtSymbol = : Tried to access variable that is not allowed.
218.62.90.154 - [09/Apr/2014:10:57:40 +0800] /index.php: txtSymbol = : Tried to access variable that is not allowed.
66.249.65.158 - [09/Apr/2014:11:01:18 +0800] /index.php: VXo5MzJ3QUNpSUVJcXJBaElQYmpwUT09 = : Tried to access variable that is not allowed.
218.62.90.154 - [09/Apr/2014:11:03:18 +0800] /index.php: txtSymbol = g: The parameter value is too short.
218.62.90.154 - [09/Apr/2014:11:03:37 +0800] /index.php: btnSymbol = : Tried to access variable that is not allowed.
