64.79.100.22 - [08/Mar/2015:22:28:53 +0800] /index.php: Blocked = : Page blocked(DOS).
 -&gt; [Method: DOS]
 -&gt; [Policy: DOS Policy]
 -&gt; [Pattern: check dos-policy]
64.79.100.22 - [08/Mar/2015:22:28:53 +0800] /index.php: Blocked = : Page blocked(DOS).
 -&gt; [Method: DOS]
 -&gt; [Policy: DOS Policy]
 -&gt; [Pattern: check dos-policy]
64.79.100.22 - [08/Mar/2015:22:28:55 +0800] /post.php: Blocked = : Page blocked(DOS).
 -&gt; [Method: DOS]
 -&gt; [Policy: DOS Policy]
 -&gt; [Pattern: check dos-policy]
64.79.100.22 - [08/Mar/2015:22:28:57 +0800] /index.php: Blocked = : Page blocked(DOS).
 -&gt; [Method: DOS]
 -&gt; [Policy: DOS Policy]
 -&gt; [Pattern: check dos-policy]
64.79.100.22 - [08/Mar/2015:22:29:04 +0800] /post.php: Blocked = : Page blocked(DOS).
 -&gt; [Method: DOS]
 -&gt; [Policy: DOS Policy]
 -&gt; [Pattern: check dos-policy]
64.79.100.22 - [08/Mar/2015:22:29:06 +0800] /post.php: Blocked = : Page blocked(DOS).
 -&gt; [Method: DOS]
 -&gt; [Policy: DOS Policy]
 -&gt; [Pattern: check dos-policy]
64.79.100.22 - [08/Mar/2015:22:29:08 +0800] /post.php: Blocked = : Page blocked(DOS).
 -&gt; [Method: DOS]
 -&gt; [Policy: DOS Policy]
 -&gt; [Pattern: check dos-policy]
64.79.100.22 - [08/Mar/2015:22:29:08 +0800] /index.php: Blocked = : Page blocked(DOS).
 -&gt; [Method: DOS]
 -&gt; [Policy: DOS Policy]
 -&gt; [Pattern: check dos-policy]
64.79.100.22 - [08/Mar/2015:22:29:10 +0800] /index.php: Blocked = : Page blocked(DOS).
 -&gt; [Method: DOS]
 -&gt; [Policy: DOS Policy]
 -&gt; [Pattern: check dos-policy]
64.79.100.22 - [08/Mar/2015:22:29:11 +0800] /index.php: Blocked = : Page blocked(DOS).
 -&gt; [Method: DOS]
 -&gt; [Policy: DOS Policy]
 -&gt; [Pattern: check dos-policy]
64.79.100.22 - [08/Mar/2015:22:29:18 +0800] /post.php: Blocked = : Page blocked(DOS).
 -&gt; [Method: DOS]
 -&gt; [Policy: DOS Policy]
 -&gt; [Pattern: check dos-policy]
64.79.100.22 - [08/Mar/2015:22:29:21 +0800] /index.php: Blocked = : Page blocked(DOS).
 -&gt; [Method: DOS]
 -&gt; [Policy: DOS Policy]
 -&gt; [Pattern: check dos-policy]
64.79.100.22 - [08/Mar/2015:22:29:22 +0800] /post.php: Blocked = : Page blocked(DOS).
 -&gt; [Method: DOS]
 -&gt; [Policy: DOS Policy]
 -&gt; [Pattern: check dos-policy]
64.79.100.22 - [08/Mar/2015:22:29:22 +0800] /index.php: Blocked = : Page blocked(DOS).
 -&gt; [Method: DOS]
 -&gt; [Policy: DOS Policy]
 -&gt; [Pattern: check dos-policy]
64.79.100.22 - [08/Mar/2015:22:29:24 +0800] /index.php: Blocked = : Page blocked(DOS).
 -&gt; [Method: DOS]
 -&gt; [Policy: DOS Policy]
 -&gt; [Pattern: check dos-policy]
64.79.100.22 - [08/Mar/2015:22:29:26 +0800] /post.php: Blocked = : Page blocked(DOS).
 -&gt; [Method: DOS]
 -&gt; [Policy: DOS Policy]
 -&gt; [Pattern: check dos-policy]
64.79.100.22 - [08/Mar/2015:22:29:33 +0800] /post.php: Blocked = : Page blocked(DOS).
 -&gt; [Method: DOS]
 -&gt; [Policy: DOS Policy]
 -&gt; [Pattern: check dos-policy]
64.79.100.22 - [08/Mar/2015:22:29:35 +0800] /index.php: Blocked = : Page blocked(DOS).
 -&gt; [Method: DOS]
 -&gt; [Policy: DOS Policy]
 -&gt; [Pattern: check dos-policy]
64.79.100.22 - [08/Mar/2015:22:29:37 +0800] /index.php: Blocked = : Page blocked(DOS).
 -&gt; [Method: DOS]
 -&gt; [Policy: DOS Policy]
 -&gt; [Pattern: check dos-policy]
64.79.100.22 - [08/Mar/2015:22:29:37 +0800] /post.php: Blocked = : Page blocked(DOS).
 -&gt; [Method: DOS]
 -&gt; [Policy: DOS Policy]
 -&gt; [Pattern: check dos-policy]
64.79.100.22 - [08/Mar/2015:22:29:38 +0800] /post.php: Blocked = : Page blocked(DOS).
 -&gt; [Method: DOS]
 -&gt; [Policy: DOS Policy]
 -&gt; [Pattern: check dos-policy]
64.79.100.22 - [08/Mar/2015:22:29:40 +0800] /index.php: Blocked = : Page blocked(DOS).
 -&gt; [Method: DOS]
 -&gt; [Policy: DOS Policy]
 -&gt; [Pattern: check dos-policy]
64.79.100.22 - [08/Mar/2015:22:29:48 +0800] /index.php: Blocked = : Page blocked(DOS).
 -&gt; [Method: DOS]
 -&gt; [Policy: DOS Policy]
 -&gt; [Pattern: check dos-policy]
64.79.100.22 - [08/Mar/2015:22:29:49 +0800] /post.php: Blocked = : Page blocked(DOS).
 -&gt; [Method: DOS]
 -&gt; [Policy: DOS Policy]
 -&gt; [Pattern: check dos-policy]
64.79.100.22 - [08/Mar/2015:22:29:51 +0800] /index.php: Blocked = : Page blocked(DOS).
 -&gt; [Method: DOS]
 -&gt; [Policy: DOS Policy]
 -&gt; [Pattern: check dos-policy]
64.79.100.22 - [08/Mar/2015:22:29:51 +0800] /index.php: Blocked = : Page blocked(DOS).
 -&gt; [Method: DOS]
 -&gt; [Policy: DOS Policy]
 -&gt; [Pattern: check dos-policy]
64.79.100.22 - [08/Mar/2015:22:29:53 +0800] /post.php: Blocked = : Page blocked(DOS).
 -&gt; [Method: DOS]
 -&gt; [Policy: DOS Policy]
 -&gt; [Pattern: check dos-policy]
64.79.100.22 - [08/Mar/2015:22:29:54 +0800] /index.php: Blocked = : Page blocked(DOS).
 -&gt; [Method: DOS]
 -&gt; [Policy: DOS Policy]
 -&gt; [Pattern: check dos-policy]
64.79.100.22 - [08/Mar/2015:22:30:02 +0800] /index.php: Blocked = : Page blocked(DOS).
 -&gt; [Method: DOS]
 -&gt; [Policy: DOS Policy]
 -&gt; [Pattern: check dos-policy]
64.79.100.22 - [08/Mar/2015:22:30:04 +0800] /post.php: Blocked = : Page blocked(DOS).
 -&gt; [Method: DOS]
 -&gt; [Policy: DOS Policy]
 -&gt; [Pattern: check dos-policy]
64.79.100.22 - [08/Mar/2015:22:30:05 +0800] /index.php: Blocked = : Page blocked(DOS).
 -&gt; [Method: DOS]
 -&gt; [Policy: DOS Policy]
 -&gt; [Pattern: check dos-policy]
64.79.100.22 - [08/Mar/2015:22:30:06 +0800] /index.php: Blocked = : Page blocked(DOS).
 -&gt; [Method: DOS]
 -&gt; [Policy: DOS Policy]
 -&gt; [Pattern: check dos-policy]
64.79.100.22 - [08/Mar/2015:22:30:07 +0800] /post.php: Blocked = : Page blocked(DOS).
 -&gt; [Method: DOS]
 -&gt; [Policy: DOS Policy]
 -&gt; [Pattern: check dos-policy]
64.79.100.22 - [08/Mar/2015:22:30:09 +0800] /index.php: Blocked = : Page blocked(DOS).
 -&gt; [Method: DOS]
 -&gt; [Policy: DOS Policy]
 -&gt; [Pattern: check dos-policy]
64.79.100.22 - [08/Mar/2015:22:30:16 +0800] /index.php: Blocked = : Page blocked(DOS).
 -&gt; [Method: DOS]
 -&gt; [Policy: DOS Policy]
 -&gt; [Pattern: check dos-policy]
64.79.100.22 - [08/Mar/2015:22:30:18 +0800] /post.php: Blocked = : Page blocked(DOS).
 -&gt; [Method: DOS]
 -&gt; [Policy: DOS Policy]
 -&gt; [Pattern: check dos-policy]
64.79.100.22 - [08/Mar/2015:22:30:20 +0800] /index.php: Blocked = : Page blocked(DOS).
 -&gt; [Method: DOS]
 -&gt; [Policy: DOS Policy]
 -&gt; [Pattern: check dos-policy]
64.79.100.22 - [08/Mar/2015:22:30:20 +0800] /index.php: Blocked = : Page blocked(DOS).
 -&gt; [Method: DOS]
 -&gt; [Policy: DOS Policy]
 -&gt; [Pattern: check dos-policy]
64.79.100.22 - [08/Mar/2015:22:30:22 +0800] /post.php: Blocked = : Page blocked(DOS).
 -&gt; [Method: DOS]
 -&gt; [Policy: DOS Policy]
 -&gt; [Pattern: check dos-policy]
64.79.100.22 - [08/Mar/2015:22:30:23 +0800] /index.php: Blocked = : Page blocked(DOS).
 -&gt; [Method: DOS]
 -&gt; [Policy: DOS Policy]
 -&gt; [Pattern: check dos-policy]
64.79.100.22 - [08/Mar/2015:22:30:31 +0800] /index.php: Blocked = : Page blocked(DOS).
 -&gt; [Method: DOS]
 -&gt; [Policy: DOS Policy]
 -&gt; [Pattern: check dos-policy]
64.79.100.22 - [08/Mar/2015:22:30:32 +0800] /post.php: Blocked = : Page blocked(DOS).
 -&gt; [Method: DOS]
 -&gt; [Policy: DOS Policy]
 -&gt; [Pattern: check dos-policy]
64.79.100.22 - [08/Mar/2015:22:30:34 +0800] /index.php: Blocked = : Page blocked(DOS).
 -&gt; [Method: DOS]
 -&gt; [Policy: DOS Policy]
 -&gt; [Pattern: check dos-policy]
64.79.100.22 - [08/Mar/2015:22:30:34 +0800] /index.php: Blocked = : Page blocked(DOS).
 -&gt; [Method: DOS]
 -&gt; [Policy: DOS Policy]
 -&gt; [Pattern: check dos-policy]
64.79.100.22 - [08/Mar/2015:22:30:36 +0800] /post.php: Blocked = : Page blocked(DOS).
 -&gt; [Method: DOS]
 -&gt; [Policy: DOS Policy]
 -&gt; [Pattern: check dos-policy]
64.79.100.22 - [08/Mar/2015:22:30:37 +0800] /index.php: Blocked = : Page blocked(DOS).
 -&gt; [Method: DOS]
 -&gt; [Policy: DOS Policy]
 -&gt; [Pattern: check dos-policy]
64.79.100.22 - [08/Mar/2015:22:30:45 +0800] /index.php: Blocked = : Page blocked(DOS).
 -&gt; [Method: DOS]
 -&gt; [Policy: DOS Policy]
 -&gt; [Pattern: check dos-policy]
64.79.100.22 - [08/Mar/2015:22:30:47 +0800] /post.php: Blocked = : Page blocked(DOS).
 -&gt; [Method: DOS]
 -&gt; [Policy: DOS Policy]
 -&gt; [Pattern: check dos-policy]
64.79.100.22 - [08/Mar/2015:22:30:48 +0800] /index.php: Blocked = : Page blocked(DOS).
 -&gt; [Method: DOS]
 -&gt; [Policy: DOS Policy]
 -&gt; [Pattern: check dos-policy]
64.79.100.22 - [08/Mar/2015:22:30:49 +0800] /index.php: Blocked = : Page blocked(DOS).
 -&gt; [Method: DOS]
 -&gt; [Policy: DOS Policy]
 -&gt; [Pattern: check dos-policy]
64.79.100.22 - [08/Mar/2015:22:30:50 +0800] /post.php: Blocked = : Page blocked(DOS).
 -&gt; [Method: DOS]
 -&gt; [Policy: DOS Policy]
 -&gt; [Pattern: check dos-policy]
64.79.100.22 - [08/Mar/2015:22:30:52 +0800] /index.php: Blocked = : Page blocked(DOS).
 -&gt; [Method: DOS]
 -&gt; [Policy: DOS Policy]
 -&gt; [Pattern: check dos-policy]
64.79.100.22 - [08/Mar/2015:22:31:02 +0800] /index.php: Blocked = : Page blocked(DOS).
 -&gt; [Method: DOS]
 -&gt; [Policy: DOS Policy]
 -&gt; [Pattern: check dos-policy]
64.79.100.22 - [08/Mar/2015:22:31:03 +0800] /index.php: Blocked = : Page blocked(DOS).
 -&gt; [Method: DOS]
 -&gt; [Policy: DOS Policy]
 -&gt; [Pattern: check dos-policy]
64.79.100.22 - [08/Mar/2015:22:31:04 +0800] /post.php: Blocked = : Page blocked(DOS).
 -&gt; [Method: DOS]
 -&gt; [Policy: DOS Policy]
 -&gt; [Pattern: check dos-policy]
64.79.100.22 - [08/Mar/2015:22:31:05 +0800] /index.php: Blocked = : Page blocked(DOS).
 -&gt; [Method: DOS]
 -&gt; [Policy: DOS Policy]
 -&gt; [Pattern: check dos-policy]
64.79.100.22 - [08/Mar/2015:22:31:07 +0800] /post.php: Blocked = : Page blocked(DOS).
 -&gt; [Method: DOS]
 -&gt; [Policy: DOS Policy]
 -&gt; [Pattern: check dos-policy]
64.79.100.22 - [08/Mar/2015:22:31:16 +0800] /index.php: Blocked = : Page blocked(DOS).
 -&gt; [Method: DOS]
 -&gt; [Policy: DOS Policy]
 -&gt; [Pattern: check dos-policy]
64.79.100.22 - [08/Mar/2015:22:31:16 +0800] /index.php: Blocked = : Page blocked(DOS).
 -&gt; [Method: DOS]
 -&gt; [Policy: DOS Policy]
 -&gt; [Pattern: check dos-policy]
64.79.100.22 - [08/Mar/2015:22:31:18 +0800] /post.php: Blocked = : Page blocked(DOS).
 -&gt; [Method: DOS]
 -&gt; [Policy: DOS Policy]
 -&gt; [Pattern: check dos-policy]
64.79.100.22 - [08/Mar/2015:22:31:19 +0800] /index.php: Blocked = : Page blocked(DOS).
 -&gt; [Method: DOS]
 -&gt; [Policy: DOS Policy]
 -&gt; [Pattern: check dos-policy]
64.79.100.22 - [08/Mar/2015:22:31:31 +0800] /index.php: Blocked = : Page blocked(DOS).
 -&gt; [Method: DOS]
 -&gt; [Policy: DOS Policy]
 -&gt; [Pattern: check dos-policy]
64.79.100.22 - [08/Mar/2015:22:31:32 +0800] /index.php: Blocked = : Page blocked(DOS).
 -&gt; [Method: DOS]
 -&gt; [Policy: DOS Policy]
 -&gt; [Pattern: check dos-policy]
64.79.100.22 - [08/Mar/2015:22:31:42 +0800] /index.php: Blocked = : Page blocked(DOS).
 -&gt; [Method: DOS]
 -&gt; [Policy: DOS Policy]
 -&gt; [Pattern: check dos-policy]
64.79.100.22 - [08/Mar/2015:22:31:42 +0800] /post.php: Blocked = : Page blocked(DOS).
 -&gt; [Method: DOS]
 -&gt; [Policy: DOS Policy]
 -&gt; [Pattern: check dos-policy]
64.79.100.22 - [08/Mar/2015:22:31:43 +0800] /post.php: Blocked = : Page blocked(DOS).
 -&gt; [Method: DOS]
 -&gt; [Policy: DOS Policy]
 -&gt; [Pattern: check dos-policy]
64.79.100.22 - [08/Mar/2015:22:31:45 +0800] /index.php: Blocked = : Page blocked(DOS).
 -&gt; [Method: DOS]
 -&gt; [Policy: DOS Policy]
 -&gt; [Pattern: check dos-policy]
64.79.100.22 - [08/Mar/2015:22:31:57 +0800] /index.php: Blocked = : Page blocked(DOS).
 -&gt; [Method: DOS]
 -&gt; [Policy: DOS Policy]
 -&gt; [Pattern: check dos-policy]
64.79.100.22 - [08/Mar/2015:22:31:58 +0800] /index.php: Blocked = : Page blocked(DOS).
 -&gt; [Method: DOS]
 -&gt; [Policy: DOS Policy]
 -&gt; [Pattern: check dos-policy]
64.79.100.22 - [08/Mar/2015:22:31:58 +0800] /index.php: Blocked = : Page blocked(DOS).
 -&gt; [Method: DOS]
 -&gt; [Policy: DOS Policy]
 -&gt; [Pattern: check dos-policy]
64.79.100.22 - [08/Mar/2015:22:32:10 +0800] /index.php: Blocked = : Page blocked(DOS).
 -&gt; [Method: DOS]
 -&gt; [Policy: DOS Policy]
 -&gt; [Pattern: check dos-policy]
64.79.100.22 - [08/Mar/2015:22:32:13 +0800] /post.php: Blocked = : Page blocked(DOS).
 -&gt; [Method: DOS]
 -&gt; [Policy: DOS Policy]
 -&gt; [Pattern: check dos-policy]
64.79.100.22 - [08/Mar/2015:22:32:15 +0800] /index.php: Blocked = : Page blocked(DOS).
 -&gt; [Method: DOS]
 -&gt; [Policy: DOS Policy]
 -&gt; [Pattern: check dos-policy]
64.79.100.22 - [08/Mar/2015:22:32:15 +0800] /post.php: Blocked = : Page blocked(DOS).
 -&gt; [Method: DOS]
 -&gt; [Policy: DOS Policy]
 -&gt; [Pattern: check dos-policy]
64.79.100.22 - [08/Mar/2015:22:32:26 +0800] /index.php: Blocked = : Page blocked(DOS).
 -&gt; [Method: DOS]
 -&gt; [Policy: DOS Policy]
 -&gt; [Pattern: check dos-policy]
64.79.100.22 - [08/Mar/2015:22:32:26 +0800] /post.php: Blocked = : Page blocked(DOS).
 -&gt; [Method: DOS]
 -&gt; [Policy: DOS Policy]
 -&gt; [Pattern: check dos-policy]
64.79.100.22 - [08/Mar/2015:22:32:29 +0800] /index.php: Blocked = : Page blocked(DOS).
 -&gt; [Method: DOS]
 -&gt; [Policy: DOS Policy]
 -&gt; [Pattern: check dos-policy]
64.79.100.22 - [08/Mar/2015:22:32:29 +0800] /post.php: Blocked = : Page blocked(DOS).
 -&gt; [Method: DOS]
 -&gt; [Policy: DOS Policy]
 -&gt; [Pattern: check dos-policy]
64.79.100.22 - [08/Mar/2015:22:32:30 +0800] /index.php: Blocked = : Page blocked(DOS).
 -&gt; [Method: DOS]
 -&gt; [Policy: DOS Policy]
 -&gt; [Pattern: check dos-policy]
64.79.100.22 - [08/Mar/2015:22:32:40 +0800] /post.php: Blocked = : Page blocked(DOS).
 -&gt; [Method: DOS]
 -&gt; [Policy: DOS Policy]
 -&gt; [Pattern: check dos-policy]
64.79.100.22 - [08/Mar/2015:22:32:40 +0800] /index.php: Blocked = : Page blocked(DOS).
 -&gt; [Method: DOS]
 -&gt; [Policy: DOS Policy]
 -&gt; [Pattern: check dos-policy]
64.79.100.22 - [08/Mar/2015:22:32:43 +0800] /index.php: Blocked = : Page blocked(DOS).
 -&gt; [Method: DOS]
 -&gt; [Policy: DOS Policy]
 -&gt; [Pattern: check dos-policy]
64.79.100.22 - [08/Mar/2015:22:32:44 +0800] /post.php: Blocked = : Page blocked(DOS).
 -&gt; [Method: DOS]
 -&gt; [Policy: DOS Policy]
 -&gt; [Pattern: check dos-policy]
64.79.100.22 - [08/Mar/2015:22:32:44 +0800] /index.php: Blocked = : Page blocked(DOS).
 -&gt; [Method: DOS]
 -&gt; [Policy: DOS Policy]
 -&gt; [Pattern: check dos-policy]
64.79.100.22 - [08/Mar/2015:22:32:54 +0800] /post.php: Blocked = : Page blocked(DOS).
 -&gt; [Method: DOS]
 -&gt; [Policy: DOS Policy]
 -&gt; [Pattern: check dos-policy]
64.79.100.22 - [08/Mar/2015:22:32:55 +0800] /index.php: Blocked = : Page blocked(DOS).
 -&gt; [Method: DOS]
 -&gt; [Policy: DOS Policy]
 -&gt; [Pattern: check dos-policy]
64.79.100.22 - [08/Mar/2015:22:32:58 +0800] /index.php: Blocked = : Page blocked(DOS).
 -&gt; [Method: DOS]
 -&gt; [Policy: DOS Policy]
 -&gt; [Pattern: check dos-policy]
64.79.100.22 - [08/Mar/2015:22:32:58 +0800] /post.php: Blocked = : Page blocked(DOS).
 -&gt; [Method: DOS]
 -&gt; [Policy: DOS Policy]
 -&gt; [Pattern: check dos-policy]
64.79.100.22 - [08/Mar/2015:22:32:58 +0800] /index.php: Blocked = : Page blocked(DOS).
 -&gt; [Method: DOS]
 -&gt; [Policy: DOS Policy]
 -&gt; [Pattern: check dos-policy]
64.79.100.22 - [08/Mar/2015:22:33:09 +0800] /index.php: Blocked = : Page blocked(DOS).
 -&gt; [Method: DOS]
 -&gt; [Policy: DOS Policy]
 -&gt; [Pattern: check dos-policy]
64.79.100.22 - [08/Mar/2015:22:33:10 +0800] /index.php: Blocked = : Page blocked(DOS).
 -&gt; [Method: DOS]
 -&gt; [Policy: DOS Policy]
 -&gt; [Pattern: check dos-policy]
64.79.100.22 - [08/Mar/2015:22:33:13 +0800] /post.php: Blocked = : Page blocked(DOS).
 -&gt; [Method: DOS]
 -&gt; [Policy: DOS Policy]
 -&gt; [Pattern: check dos-policy]
64.79.100.22 - [08/Mar/2015:22:33:13 +0800] /index.php: Blocked = : Page blocked(DOS).
 -&gt; [Method: DOS]
 -&gt; [Policy: DOS Policy]
 -&gt; [Pattern: check dos-policy]
64.79.100.22 - [08/Mar/2015:22:33:24 +0800] /index.php: Blocked = : Page blocked(DOS).
 -&gt; [Method: DOS]
 -&gt; [Policy: DOS Policy]
 -&gt; [Pattern: check dos-policy]
64.79.100.22 - [08/Mar/2015:22:33:25 +0800] /index.php: Blocked = : Page blocked(DOS).
 -&gt; [Method: DOS]
 -&gt; [Policy: DOS Policy]
 -&gt; [Pattern: check dos-policy]
