66.249.71.70 - [01/Mar/2015:07:46:52 +0800] /index.php: toregister = : Tried to access variable that is not allowed.
 -&gt; [Method: GET]
 -&gt; [Policy: Advanced Policy]
 -&gt; [Pattern: check white-list]
