144.76.195.119 - [15/Mar/2015:14:37:18 +0800] /index.php: Blocked = : Page blocked(DOS).
 -&gt; [Method: DOS]
 -&gt; [Policy: DOS Policy]
 -&gt; [Pattern: check dos-policy]
144.76.195.119 - [15/Mar/2015:14:37:30 +0800] /index.php: Blocked = : Page blocked(DOS).
 -&gt; [Method: DOS]
 -&gt; [Policy: DOS Policy]
 -&gt; [Pattern: check dos-policy]
144.76.195.119 - [15/Mar/2015:14:39:22 +0800] /index.php: Blocked = : Page blocked(DOS).
 -&gt; [Method: DOS]
 -&gt; [Policy: DOS Policy]
 -&gt; [Pattern: check dos-policy]
144.76.195.119 - [15/Mar/2015:14:39:34 +0800] /index.php: Blocked = : Page blocked(DOS).
 -&gt; [Method: DOS]
 -&gt; [Policy: DOS Policy]
 -&gt; [Pattern: check dos-policy]
144.76.195.119 - [15/Mar/2015:14:39:52 +0800] /index.php: Blocked = : Page blocked(DOS).
 -&gt; [Method: DOS]
 -&gt; [Policy: DOS Policy]
 -&gt; [Pattern: check dos-policy]
